{
  "photos": {
    "page": 1,
    "pages": 33471,
    "perpage": 10,
    "total": "334702",
    "photo": [
      {
        "id": "50263649261",
        "owner": "189868260@N06",
        "secret": "f85945ee77",
        "server": "65535",
        "farm": 66,
        "title": "8 Taboos About Private Health Insurance You Should Never Share On Twitter | private health insurance",
        "ispublic": 1,
        "isfriend": 0,
        "isfamily": 0
      },
      {
        "id": "50263645081",
        "owner": "188493262@N07",
        "secret": "c65b45fde9",
        "server": "65535",
        "farm": 66,
        "title": "Silence (CFS Peace and Quiet",
        "ispublic": 1,
        "isfriend": 0,
        "isfamily": 0
      },
      {
        "id": "50263638816",
        "owner": "188493262@N07",
        "secret": "4fe1e78b6a",
        "server": "65535",
        "farm": 66,
        "title": "Admiral Yima (CFS Peace and Quiet)",
        "ispublic": 1,
        "isfriend": 0,
        "isfamily": 0
      },
      {
        "id": "50262961583",
        "owner": "188493262@N07",
        "secret": "9e1a69ee2a",
        "server": "65535",
        "farm": 66,
        "title": "The Crew of the CFS Peace and Quiet",
        "ispublic": 1,
        "isfriend": 0,
        "isfamily": 0
      },
      {
        "id": "50263397646",
        "owner": "188493262@N07",
        "secret": "6e76b24790",
        "server": "65535",
        "farm": 66,
        "title": "The Bridge of the CFS Peace and Quiet",
        "ispublic": 1,
        "isfriend": 0,
        "isfamily": 0
      },
      {
        "id": "50263693222",
        "owner": "36544364@N06",
        "secret": "eb6c4c71a1",
        "server": "65535",
        "farm": 66,
        "title": "Laura",
        "ispublic": 1,
        "isfriend": 0,
        "isfamily": 0
      },
      {
        "id": "50263623822",
        "owner": "27425820@N00",
        "secret": "f06ef4a117",
        "server": "65535",
        "farm": 66,
        "title": "Joy",
        "ispublic": 1,
        "isfriend": 0,
        "isfamily": 0
      },
      {
        "id": "50263542822",
        "owner": "96429082@N07",
        "secret": "e8ea576b23",
        "server": "65535",
        "farm": 66,
        "title": "finding peace | Washington National Cathedral",
        "ispublic": 1,
        "isfriend": 0,
        "isfamily": 0
      },
      {
        "id": "50263334566",
        "owner": "168578054@N05",
        "secret": "4aef38f616",
        "server": "65535",
        "farm": 66,
        "title": "Balcony Flower Gardening for Beginners",
        "ispublic": 1,
        "isfriend": 0,
        "isfamily": 0
      },
      {
        "id": "50262632358",
        "owner": "36544364@N06",
        "secret": "289d824e2b",
        "server": "65535",
        "farm": 66,
        "title": "Laura",
        "ispublic": 1,
        "isfriend": 0,
        "isfamily": 0
      }
    ]
  },
  "stat": "ok"
}